^E:\PROJECTS\FYP\BOTS_CODES\UALBERTABOT\SRC\SPARCRAFT\SOURCE\ALLPLAYERS.CPP
/c /I/include /I/include /ZI /nologo /W3 /WX- /Od /Oy- /D WIN32 /D _DEBUG /D _CONSOLE /D NOMINMAX /D _UNICODE /D UNICODE /Gm /EHsc /RTC1 /MDd /GS /fp:precise /Zc:wchar_t /Zc:forScope /Fo"Debug\\" /Fd"Debug\vc90.pdb" /Gd /TP /analyze- /errorReport:prompt E:\PROJECTS\FYP\BOTS_CODES\UALBERTABOT\SRC\SPARCRAFT\SOURCE\ALLPLAYERS.CPP
^E:\PROJECTS\FYP\BOTS_CODES\UALBERTABOT\SRC\SPARCRAFT\SOURCE\ALPHABETASEARCH.CPP
/c /I/include /I/include /ZI /nologo /W3 /WX- /Od /Oy- /D WIN32 /D _DEBUG /D _CONSOLE /D NOMINMAX /D _UNICODE /D UNICODE /Gm /EHsc /RTC1 /MDd /GS /fp:precise /Zc:wchar_t /Zc:forScope /Fo"Debug\\" /Fd"Debug\vc90.pdb" /Gd /TP /analyze- /errorReport:prompt E:\PROJECTS\FYP\BOTS_CODES\UALBERTABOT\SRC\SPARCRAFT\SOURCE\ALPHABETASEARCH.CPP
^E:\PROJECTS\FYP\BOTS_CODES\UALBERTABOT\SRC\SPARCRAFT\SOURCE\ANIMATIONFRAMEDATA.CPP
/c /I/include /I/include /ZI /nologo /W3 /WX- /Od /Oy- /D WIN32 /D _DEBUG /D _CONSOLE /D NOMINMAX /D _UNICODE /D UNICODE /Gm /EHsc /RTC1 /MDd /GS /fp:precise /Zc:wchar_t /Zc:forScope /Fo"Debug\\" /Fd"Debug\vc90.pdb" /Gd /TP /analyze- /errorReport:prompt E:\PROJECTS\FYP\BOTS_CODES\UALBERTABOT\SRC\SPARCRAFT\SOURCE\ANIMATIONFRAMEDATA.CPP
^E:\PROJECTS\FYP\BOTS_CODES\UALBERTABOT\SRC\SPARCRAFT\SOURCE\COMMON.CPP
/c /I/include /I/include /ZI /nologo /W3 /WX- /Od /Oy- /D WIN32 /D _DEBUG /D _CONSOLE /D NOMINMAX /D _UNICODE /D UNICODE /Gm /EHsc /RTC1 /MDd /GS /fp:precise /Zc:wchar_t /Zc:forScope /Fo"Debug\\" /Fd"Debug\vc90.pdb" /Gd /TP /analyze- /errorReport:prompt E:\PROJECTS\FYP\BOTS_CODES\UALBERTABOT\SRC\SPARCRAFT\SOURCE\COMMON.CPP
^E:\PROJECTS\FYP\BOTS_CODES\UALBERTABOT\SRC\SPARCRAFT\SOURCE\DISPLAY.CPP
/c /I/include /I/include /ZI /nologo /W3 /WX- /Od /Oy- /D WIN32 /D _DEBUG /D _CONSOLE /D NOMINMAX /D _UNICODE /D UNICODE /Gm /EHsc /RTC1 /MDd /GS /fp:precise /Zc:wchar_t /Zc:forScope /Fo"Debug\\" /Fd"Debug\vc90.pdb" /Gd /TP /analyze- /errorReport:prompt E:\PROJECTS\FYP\BOTS_CODES\UALBERTABOT\SRC\SPARCRAFT\SOURCE\DISPLAY.CPP
^E:\PROJECTS\FYP\BOTS_CODES\UALBERTABOT\SRC\SPARCRAFT\SOURCE\ENUMDATA.CPP
/c /I/include /I/include /ZI /nologo /W3 /WX- /Od /Oy- /D WIN32 /D _DEBUG /D _CONSOLE /D NOMINMAX /D _UNICODE /D UNICODE /Gm /EHsc /RTC1 /MDd /GS /fp:precise /Zc:wchar_t /Zc:forScope /Fo"Debug\\" /Fd"Debug\vc90.pdb" /Gd /TP /analyze- /errorReport:prompt E:\PROJECTS\FYP\BOTS_CODES\UALBERTABOT\SRC\SPARCRAFT\SOURCE\ENUMDATA.CPP
^E:\PROJECTS\FYP\BOTS_CODES\UALBERTABOT\SRC\SPARCRAFT\SOURCE\GAME.CPP
/c /I/include /I/include /ZI /nologo /W3 /WX- /Od /Oy- /D WIN32 /D _DEBUG /D _CONSOLE /D NOMINMAX /D _UNICODE /D UNICODE /Gm /EHsc /RTC1 /MDd /GS /fp:precise /Zc:wchar_t /Zc:forScope /Fo"Debug\\" /Fd"Debug\vc90.pdb" /Gd /TP /analyze- /errorReport:prompt E:\PROJECTS\FYP\BOTS_CODES\UALBERTABOT\SRC\SPARCRAFT\SOURCE\GAME.CPP
^E:\PROJECTS\FYP\BOTS_CODES\UALBERTABOT\SRC\SPARCRAFT\SOURCE\GAMESTATE.CPP
/c /I/include /I/include /ZI /nologo /W3 /WX- /Od /Oy- /D WIN32 /D _DEBUG /D _CONSOLE /D NOMINMAX /D _UNICODE /D UNICODE /Gm /EHsc /RTC1 /MDd /GS /fp:precise /Zc:wchar_t /Zc:forScope /Fo"Debug\\" /Fd"Debug\vc90.pdb" /Gd /TP /analyze- /errorReport:prompt E:\PROJECTS\FYP\BOTS_CODES\UALBERTABOT\SRC\SPARCRAFT\SOURCE\GAMESTATE.CPP
^E:\PROJECTS\FYP\BOTS_CODES\UALBERTABOT\SRC\SPARCRAFT\SOURCE\GLFONT\GLFONT.CC
/c /I/include /I/include /ZI /nologo /W3 /WX- /Od /Oy- /D WIN32 /D _DEBUG /D _CONSOLE /D NOMINMAX /D _UNICODE /D UNICODE /Gm /EHsc /RTC1 /MDd /GS /fp:precise /Zc:wchar_t /Zc:forScope /Fo"Debug\\" /Fd"Debug\vc90.pdb" /Gd /TP /analyze- /errorReport:prompt E:\PROJECTS\FYP\BOTS_CODES\UALBERTABOT\SRC\SPARCRAFT\SOURCE\GLFONT\GLFONT.CC
^E:\PROJECTS\FYP\BOTS_CODES\UALBERTABOT\SRC\SPARCRAFT\SOURCE\HASH.CPP
/c /I/include /I/include /ZI /nologo /W3 /WX- /Od /Oy- /D WIN32 /D _DEBUG /D _CONSOLE /D NOMINMAX /D _UNICODE /D UNICODE /Gm /EHsc /RTC1 /MDd /GS /fp:precise /Zc:wchar_t /Zc:forScope /Fo"Debug\\" /Fd"Debug\vc90.pdb" /Gd /TP /analyze- /errorReport:prompt E:\PROJECTS\FYP\BOTS_CODES\UALBERTABOT\SRC\SPARCRAFT\SOURCE\HASH.CPP
^E:\PROJECTS\FYP\BOTS_CODES\UALBERTABOT\SRC\SPARCRAFT\SOURCE\LOGGER.CPP
/c /I/include /I/include /ZI /nologo /W3 /WX- /Od /Oy- /D WIN32 /D _DEBUG /D _CONSOLE /D NOMINMAX /D _UNICODE /D UNICODE /Gm /EHsc /RTC1 /MDd /GS /fp:precise /Zc:wchar_t /Zc:forScope /Fo"Debug\\" /Fd"Debug\vc90.pdb" /Gd /TP /analyze- /errorReport:prompt E:\PROJECTS\FYP\BOTS_CODES\UALBERTABOT\SRC\SPARCRAFT\SOURCE\LOGGER.CPP
^E:\PROJECTS\FYP\BOTS_CODES\UALBERTABOT\SRC\SPARCRAFT\SOURCE\MOVEARRAY.CPP
/c /I/include /I/include /ZI /nologo /W3 /WX- /Od /Oy- /D WIN32 /D _DEBUG /D _CONSOLE /D NOMINMAX /D _UNICODE /D UNICODE /Gm /EHsc /RTC1 /MDd /GS /fp:precise /Zc:wchar_t /Zc:forScope /Fo"Debug\\" /Fd"Debug\vc90.pdb" /Gd /TP /analyze- /errorReport:prompt E:\PROJECTS\FYP\BOTS_CODES\UALBERTABOT\SRC\SPARCRAFT\SOURCE\MOVEARRAY.CPP
^E:\PROJECTS\FYP\BOTS_CODES\UALBERTABOT\SRC\SPARCRAFT\SOURCE\PLAYER.CPP
/c /I/include /I/include /ZI /nologo /W3 /WX- /Od /Oy- /D WIN32 /D _DEBUG /D _CONSOLE /D NOMINMAX /D _UNICODE /D UNICODE /Gm /EHsc /RTC1 /MDd /GS /fp:precise /Zc:wchar_t /Zc:forScope /Fo"Debug\\" /Fd"Debug\vc90.pdb" /Gd /TP /analyze- /errorReport:prompt E:\PROJECTS\FYP\BOTS_CODES\UALBERTABOT\SRC\SPARCRAFT\SOURCE\PLAYER.CPP
^E:\PROJECTS\FYP\BOTS_CODES\UALBERTABOT\SRC\SPARCRAFT\SOURCE\PLAYERPROPERTIES.CPP
/c /I/include /I/include /ZI /nologo /W3 /WX- /Od /Oy- /D WIN32 /D _DEBUG /D _CONSOLE /D NOMINMAX /D _UNICODE /D UNICODE /Gm /EHsc /RTC1 /MDd /GS /fp:precise /Zc:wchar_t /Zc:forScope /Fo"Debug\\" /Fd"Debug\vc90.pdb" /Gd /TP /analyze- /errorReport:prompt E:\PROJECTS\FYP\BOTS_CODES\UALBERTABOT\SRC\SPARCRAFT\SOURCE\PLAYERPROPERTIES.CPP
^E:\PROJECTS\FYP\BOTS_CODES\UALBERTABOT\SRC\SPARCRAFT\SOURCE\PLAYER_ALPHABETA.CPP
/c /I/include /I/include /ZI /nologo /W3 /WX- /Od /Oy- /D WIN32 /D _DEBUG /D _CONSOLE /D NOMINMAX /D _UNICODE /D UNICODE /Gm /EHsc /RTC1 /MDd /GS /fp:precise /Zc:wchar_t /Zc:forScope /Fo"Debug\\" /Fd"Debug\vc90.pdb" /Gd /TP /analyze- /errorReport:prompt E:\PROJECTS\FYP\BOTS_CODES\UALBERTABOT\SRC\SPARCRAFT\SOURCE\PLAYER_ALPHABETA.CPP
^E:\PROJECTS\FYP\BOTS_CODES\UALBERTABOT\SRC\SPARCRAFT\SOURCE\PLAYER_ATTACKCLOSEST.CPP
/c /I/include /I/include /ZI /nologo /W3 /WX- /Od /Oy- /D WIN32 /D _DEBUG /D _CONSOLE /D NOMINMAX /D _UNICODE /D UNICODE /Gm /EHsc /RTC1 /MDd /GS /fp:precise /Zc:wchar_t /Zc:forScope /Fo"Debug\\" /Fd"Debug\vc90.pdb" /Gd /TP /analyze- /errorReport:prompt E:\PROJECTS\FYP\BOTS_CODES\UALBERTABOT\SRC\SPARCRAFT\SOURCE\PLAYER_ATTACKCLOSEST.CPP
^E:\PROJECTS\FYP\BOTS_CODES\UALBERTABOT\SRC\SPARCRAFT\SOURCE\PLAYER_ATTACKDPS.CPP
/c /I/include /I/include /ZI /nologo /W3 /WX- /Od /Oy- /D WIN32 /D _DEBUG /D _CONSOLE /D NOMINMAX /D _UNICODE /D UNICODE /Gm /EHsc /RTC1 /MDd /GS /fp:precise /Zc:wchar_t /Zc:forScope /Fo"Debug\\" /Fd"Debug\vc90.pdb" /Gd /TP /analyze- /errorReport:prompt E:\PROJECTS\FYP\BOTS_CODES\UALBERTABOT\SRC\SPARCRAFT\SOURCE\PLAYER_ATTACKDPS.CPP
^E:\PROJECTS\FYP\BOTS_CODES\UALBERTABOT\SRC\SPARCRAFT\SOURCE\PLAYER_ATTACKWEAKEST.CPP
/c /I/include /I/include /ZI /nologo /W3 /WX- /Od /Oy- /D WIN32 /D _DEBUG /D _CONSOLE /D NOMINMAX /D _UNICODE /D UNICODE /Gm /EHsc /RTC1 /MDd /GS /fp:precise /Zc:wchar_t /Zc:forScope /Fo"Debug\\" /Fd"Debug\vc90.pdb" /Gd /TP /analyze- /errorReport:prompt E:\PROJECTS\FYP\BOTS_CODES\UALBERTABOT\SRC\SPARCRAFT\SOURCE\PLAYER_ATTACKWEAKEST.CPP
^E:\PROJECTS\FYP\BOTS_CODES\UALBERTABOT\SRC\SPARCRAFT\SOURCE\PLAYER_CLUSTER.CPP
/c /I/include /I/include /ZI /nologo /W3 /WX- /Od /Oy- /D WIN32 /D _DEBUG /D _CONSOLE /D NOMINMAX /D _UNICODE /D UNICODE /Gm /EHsc /RTC1 /MDd /GS /fp:precise /Zc:wchar_t /Zc:forScope /Fo"Debug\\" /Fd"Debug\vc90.pdb" /Gd /TP /analyze- /errorReport:prompt E:\PROJECTS\FYP\BOTS_CODES\UALBERTABOT\SRC\SPARCRAFT\SOURCE\PLAYER_CLUSTER.CPP
^E:\PROJECTS\FYP\BOTS_CODES\UALBERTABOT\SRC\SPARCRAFT\SOURCE\PLAYER_KITER.CPP
/c /I/include /I/include /ZI /nologo /W3 /WX- /Od /Oy- /D WIN32 /D _DEBUG /D _CONSOLE /D NOMINMAX /D _UNICODE /D UNICODE /Gm /EHsc /RTC1 /MDd /GS /fp:precise /Zc:wchar_t /Zc:forScope /Fo"Debug\\" /Fd"Debug\vc90.pdb" /Gd /TP /analyze- /errorReport:prompt E:\PROJECTS\FYP\BOTS_CODES\UALBERTABOT\SRC\SPARCRAFT\SOURCE\PLAYER_KITER.CPP
^E:\PROJECTS\FYP\BOTS_CODES\UALBERTABOT\SRC\SPARCRAFT\SOURCE\PLAYER_KITERDPS.CPP
/c /I/include /I/include /ZI /nologo /W3 /WX- /Od /Oy- /D WIN32 /D _DEBUG /D _CONSOLE /D NOMINMAX /D _UNICODE /D UNICODE /Gm /EHsc /RTC1 /MDd /GS /fp:precise /Zc:wchar_t /Zc:forScope /Fo"Debug\\" /Fd"Debug\vc90.pdb" /Gd /TP /analyze- /errorReport:prompt E:\PROJECTS\FYP\BOTS_CODES\UALBERTABOT\SRC\SPARCRAFT\SOURCE\PLAYER_KITERDPS.CPP
^E:\PROJECTS\FYP\BOTS_CODES\UALBERTABOT\SRC\SPARCRAFT\SOURCE\PLAYER_KITER_NOKDPS.CPP
/c /I/include /I/include /ZI /nologo /W3 /WX- /Od /Oy- /D WIN32 /D _DEBUG /D _CONSOLE /D NOMINMAX /D _UNICODE /D UNICODE /Gm /EHsc /RTC1 /MDd /GS /fp:precise /Zc:wchar_t /Zc:forScope /Fo"Debug\\" /Fd"Debug\vc90.pdb" /Gd /TP /analyze- /errorReport:prompt E:\PROJECTS\FYP\BOTS_CODES\UALBERTABOT\SRC\SPARCRAFT\SOURCE\PLAYER_KITER_NOKDPS.CPP
^E:\PROJECTS\FYP\BOTS_CODES\UALBERTABOT\SRC\SPARCRAFT\SOURCE\PLAYER_NOKDPS.CPP
/c /I/include /I/include /ZI /nologo /W3 /WX- /Od /Oy- /D WIN32 /D _DEBUG /D _CONSOLE /D NOMINMAX /D _UNICODE /D UNICODE /Gm /EHsc /RTC1 /MDd /GS /fp:precise /Zc:wchar_t /Zc:forScope /Fo"Debug\\" /Fd"Debug\vc90.pdb" /Gd /TP /analyze- /errorReport:prompt E:\PROJECTS\FYP\BOTS_CODES\UALBERTABOT\SRC\SPARCRAFT\SOURCE\PLAYER_NOKDPS.CPP
^E:\PROJECTS\FYP\BOTS_CODES\UALBERTABOT\SRC\SPARCRAFT\SOURCE\PLAYER_PORTFOLIOGREEDYSEARCH.CPP
/c /I/include /I/include /ZI /nologo /W3 /WX- /Od /Oy- /D WIN32 /D _DEBUG /D _CONSOLE /D NOMINMAX /D _UNICODE /D UNICODE /Gm /EHsc /RTC1 /MDd /GS /fp:precise /Zc:wchar_t /Zc:forScope /Fo"Debug\\" /Fd"Debug\vc90.pdb" /Gd /TP /analyze- /errorReport:prompt E:\PROJECTS\FYP\BOTS_CODES\UALBERTABOT\SRC\SPARCRAFT\SOURCE\PLAYER_PORTFOLIOGREEDYSEARCH.CPP
^E:\PROJECTS\FYP\BOTS_CODES\UALBERTABOT\SRC\SPARCRAFT\SOURCE\PLAYER_RANDOM.CPP
/c /I/include /I/include /ZI /nologo /W3 /WX- /Od /Oy- /D WIN32 /D _DEBUG /D _CONSOLE /D NOMINMAX /D _UNICODE /D UNICODE /Gm /EHsc /RTC1 /MDd /GS /fp:precise /Zc:wchar_t /Zc:forScope /Fo"Debug\\" /Fd"Debug\vc90.pdb" /Gd /TP /analyze- /errorReport:prompt E:\PROJECTS\FYP\BOTS_CODES\UALBERTABOT\SRC\SPARCRAFT\SOURCE\PLAYER_RANDOM.CPP
^E:\PROJECTS\FYP\BOTS_CODES\UALBERTABOT\SRC\SPARCRAFT\SOURCE\PLAYER_UCT.CPP
/c /I/include /I/include /ZI /nologo /W3 /WX- /Od /Oy- /D WIN32 /D _DEBUG /D _CONSOLE /D NOMINMAX /D _UNICODE /D UNICODE /Gm /EHsc /RTC1 /MDd /GS /fp:precise /Zc:wchar_t /Zc:forScope /Fo"Debug\\" /Fd"Debug\vc90.pdb" /Gd /TP /analyze- /errorReport:prompt E:\PROJECTS\FYP\BOTS_CODES\UALBERTABOT\SRC\SPARCRAFT\SOURCE\PLAYER_UCT.CPP
^E:\PROJECTS\FYP\BOTS_CODES\UALBERTABOT\SRC\SPARCRAFT\SOURCE\PORTFOLIOGREEDYSEARCH.CPP
/c /I/include /I/include /ZI /nologo /W3 /WX- /Od /Oy- /D WIN32 /D _DEBUG /D _CONSOLE /D NOMINMAX /D _UNICODE /D UNICODE /Gm /EHsc /RTC1 /MDd /GS /fp:precise /Zc:wchar_t /Zc:forScope /Fo"Debug\\" /Fd"Debug\vc90.pdb" /Gd /TP /analyze- /errorReport:prompt E:\PROJECTS\FYP\BOTS_CODES\UALBERTABOT\SRC\SPARCRAFT\SOURCE\PORTFOLIOGREEDYSEARCH.CPP
^E:\PROJECTS\FYP\BOTS_CODES\UALBERTABOT\SRC\SPARCRAFT\SOURCE\SPARCRAFT.CPP
/c /I/include /I/include /ZI /nologo /W3 /WX- /Od /Oy- /D WIN32 /D _DEBUG /D _CONSOLE /D NOMINMAX /D _UNICODE /D UNICODE /Gm /EHsc /RTC1 /MDd /GS /fp:precise /Zc:wchar_t /Zc:forScope /Fo"Debug\\" /Fd"Debug\vc90.pdb" /Gd /TP /analyze- /errorReport:prompt E:\PROJECTS\FYP\BOTS_CODES\UALBERTABOT\SRC\SPARCRAFT\SOURCE\SPARCRAFT.CPP
^E:\PROJECTS\FYP\BOTS_CODES\UALBERTABOT\SRC\SPARCRAFT\SOURCE\TIMER.CPP
/c /I/include /I/include /ZI /nologo /W3 /WX- /Od /Oy- /D WIN32 /D _DEBUG /D _CONSOLE /D NOMINMAX /D _UNICODE /D UNICODE /Gm /EHsc /RTC1 /MDd /GS /fp:precise /Zc:wchar_t /Zc:forScope /Fo"Debug\\" /Fd"Debug\vc90.pdb" /Gd /TP /analyze- /errorReport:prompt E:\PROJECTS\FYP\BOTS_CODES\UALBERTABOT\SRC\SPARCRAFT\SOURCE\TIMER.CPP
^E:\PROJECTS\FYP\BOTS_CODES\UALBERTABOT\SRC\SPARCRAFT\SOURCE\TRANSPOSITIONTABLE.CPP
/c /I/include /I/include /ZI /nologo /W3 /WX- /Od /Oy- /D WIN32 /D _DEBUG /D _CONSOLE /D NOMINMAX /D _UNICODE /D UNICODE /Gm /EHsc /RTC1 /MDd /GS /fp:precise /Zc:wchar_t /Zc:forScope /Fo"Debug\\" /Fd"Debug\vc90.pdb" /Gd /TP /analyze- /errorReport:prompt E:\PROJECTS\FYP\BOTS_CODES\UALBERTABOT\SRC\SPARCRAFT\SOURCE\TRANSPOSITIONTABLE.CPP
^E:\PROJECTS\FYP\BOTS_CODES\UALBERTABOT\SRC\SPARCRAFT\SOURCE\UCTSEARCH.CPP
/c /I/include /I/include /ZI /nologo /W3 /WX- /Od /Oy- /D WIN32 /D _DEBUG /D _CONSOLE /D NOMINMAX /D _UNICODE /D UNICODE /Gm /EHsc /RTC1 /MDd /GS /fp:precise /Zc:wchar_t /Zc:forScope /Fo"Debug\\" /Fd"Debug\vc90.pdb" /Gd /TP /analyze- /errorReport:prompt E:\PROJECTS\FYP\BOTS_CODES\UALBERTABOT\SRC\SPARCRAFT\SOURCE\UCTSEARCH.CPP
^E:\PROJECTS\FYP\BOTS_CODES\UALBERTABOT\SRC\SPARCRAFT\SOURCE\UNIT.CPP
/c /I/include /I/include /ZI /nologo /W3 /WX- /Od /Oy- /D WIN32 /D _DEBUG /D _CONSOLE /D NOMINMAX /D _UNICODE /D UNICODE /Gm /EHsc /RTC1 /MDd /GS /fp:precise /Zc:wchar_t /Zc:forScope /Fo"Debug\\" /Fd"Debug\vc90.pdb" /Gd /TP /analyze- /errorReport:prompt E:\PROJECTS\FYP\BOTS_CODES\UALBERTABOT\SRC\SPARCRAFT\SOURCE\UNIT.CPP
^E:\PROJECTS\FYP\BOTS_CODES\UALBERTABOT\SRC\SPARCRAFT\SOURCE\UNITPROPERTIES.CPP
/c /I/include /I/include /ZI /nologo /W3 /WX- /Od /Oy- /D WIN32 /D _DEBUG /D _CONSOLE /D NOMINMAX /D _UNICODE /D UNICODE /Gm /EHsc /RTC1 /MDd /GS /fp:precise /Zc:wchar_t /Zc:forScope /Fo"Debug\\" /Fd"Debug\vc90.pdb" /Gd /TP /analyze- /errorReport:prompt E:\PROJECTS\FYP\BOTS_CODES\UALBERTABOT\SRC\SPARCRAFT\SOURCE\UNITPROPERTIES.CPP
^E:\PROJECTS\FYP\BOTS_CODES\UALBERTABOT\SRC\SPARCRAFT\SOURCE\UNITSCRIPTDATA.CPP
/c /I/include /I/include /ZI /nologo /W3 /WX- /Od /Oy- /D WIN32 /D _DEBUG /D _CONSOLE /D NOMINMAX /D _UNICODE /D UNICODE /Gm /EHsc /RTC1 /MDd /GS /fp:precise /Zc:wchar_t /Zc:forScope /Fo"Debug\\" /Fd"Debug\vc90.pdb" /Gd /TP /analyze- /errorReport:prompt E:\PROJECTS\FYP\BOTS_CODES\UALBERTABOT\SRC\SPARCRAFT\SOURCE\UNITSCRIPTDATA.CPP
^E:\PROJECTS\FYP\BOTS_CODES\UALBERTABOT\SRC\SPARCRAFT\SOURCE\WEAPONPROPERTIES.CPP
/c /I/include /I/include /ZI /nologo /W3 /WX- /Od /Oy- /D WIN32 /D _DEBUG /D _CONSOLE /D NOMINMAX /D _UNICODE /D UNICODE /Gm /EHsc /RTC1 /MDd /GS /fp:precise /Zc:wchar_t /Zc:forScope /Fo"Debug\\" /Fd"Debug\vc90.pdb" /Gd /TP /analyze- /errorReport:prompt E:\PROJECTS\FYP\BOTS_CODES\UALBERTABOT\SRC\SPARCRAFT\SOURCE\WEAPONPROPERTIES.CPP
